"Position",,,,"Open",
34.9077,1,56.2187,44.6071,0,

"Position",,,,"Open",
85.3785,1,58.4292,38.8446,0,

"Position",,,,"Open",
35.7108,37.3439,57.2563,53.7408,0,

"Position",,,,"Open",
38.4955,78.494,58.7188,54.1909,0,

"Position",,,,"Open",
89.1142,73.4257,64.5928,54.5164,0,

"Position",,,,"Open",
208.579,1,55.9081,34.5066,0,

"Position",,,,"Open",
220.6035,65.1713,51.1196,49.2936,0,

"Position",,,,"Open",
168.7966,68.1582,58.2758,52.4942,0,

"Position",,,,"Open",
165.5814,31.3331,55.1681,46.6851,0,

"Position",,,,"Open",
158.926,1,58.2834,33.4977,0,

