"Position",,,,"Open",
180.8514,40.5209,27.2224,25.312,0,

"Position",,,,"Open",
178.6239,67.9993,28.4398,22,0,

"Position",,,,"Open",
182.3095,90.8903,23.2405,21.3934,0,

"Position",,,,"Open",
206.0235,87.7631,31.5379,26.8591,0,

"Position",,,,"Open",
141.402,91.7085,28.2934,25.5489,0,

"Position",,,,"Open",
111.1273,71.4975,26.6935,22.3318,0,

"Position",,,,"Open",
110.4028,45.445,28.2609,23.6069,0,

"Position",,,,"Open",
137.0216,41.7844,29.205,23.6566,0,

"Position",,,,"Open",
109.9732,90.4405,31.9888,27.5977,0,

"Position",,,,"Open",
206.5778,42.6791,26.2793,23.4069,0,

"Position",,,,"Open",
264.6396,63.4078,27.0214,27.0215,0,

"Position",,,,"Open",
265.2412,81.638,27.1042,27.1042,0,

"Position",,,,"Open",
264.2555,41.9983,26.046,27.9767,0,

"Position",,,,"Open",
240.4266,42.4838,27.0537,27.0537,0,

"Position",,,,"Open",
238.7694,62.4617,30.2744,28.3003,0,

"Position",,,,"Open",
238.5137,85.8063,31.2596,23.3523,0,

