"Position",,,,"Open",
86.0901,1,56.8627,40.4047,0,

"Position",,,,"Open",
138.4574,1,54.9864,33.2771,0,

"Position",,,,"Open",
94.8187,31.5981,50.8502,47.6748,0,

"Position",,,,"Open",
96.6118,68.5097,54.0674,49.7813,0,

"Position",,,,"Open",
143.1947,67.6446,57.1438,47.7699,0,

"Position",,,,"Open",
252.9318,1,48.7751,35.6754,0,

"Position",,,,"Open",
261.9378,68.6698,40.2106,38.7616,0,

"Position",,,,"Open",
217.8693,67.3137,48.3144,43.9403,0,

"Position",,,,"Open",
215.7712,35.1463,45.4632,39.0651,0,

"Position",,,,"Open",
207.6679,1,54.4333,33.8837,0,

