"Position",,,,"Open",
58.2646,7.0617,61.4174,52.5322,0,

"Position",,,,"Open",
117.8926,1.742,66.7701,53.8344,0,

"Position",,,,"Open",
57.9897,50.6444,63.9247,60.9513,0,

"Position",,,,"Open",
58.5441,99.6322,68.387,62.4687,0,

"Position",,,,"Open",
121.6563,95.03,73.4905,62.6604,0,

"Position",,,,"Open",
264.9991,93.2081,50.5061,49.5213,0,

"Position",,,,"Open",
255.7426,5.5471,53.4179,47.6322,0,

"Position",,,,"Open",
202.2505,2.7848,59.636,47.8098,0,

"Position",,,,"Open",
208.6173,47.9396,58.3553,54.4308,0,

"Position",,,,"Open",
211.9327,96.3436,57.2831,51.371,0,

