"Position",,,,"Open",
201.348,49.9473,24,24,0,

"Position",,,,"Open",
201.2841,73.3869,25,20,0,

"Position",,,,"Open",
201.6434,93.3583,24,20,0,

"Position",,,,"Open",
226.26,92.7393,25,20,0,

"Position",,,,"Open",
167.0709,91.3698,25,22,0,

"Position",,,,"Open",
139.7935,72.9223,26,19,0,

"Position",,,,"Open",
140.683,49.0107,25,23,0,

"Position",,,,"Open",
164.0114,48.1905,28,25,0,

"Position",,,,"Open",
139.0759,90.8328,25,22,0,

"Position",,,,"Open",
226.168,51.7859,22,19,0,

"Position",,,,"Open",
164.0878,1,26,12,0,

"Position",,,,"Open",
137.0631,1,27,14,0,

"Position",,,,"Open",
278.5802,74.0936,21,21,0,

"Position",,,,"Open",
277.2822,89.0423,23,23,0,

"Position",,,,"Open",
277.1873,53.2608,23,25,0,

"Position",,,,"Open",
255.7513,53.2664,25,25,0,

"Position",,,,"Open",
254.7834,70.6188,27,26,0,

"Position",,,,"Open",
271.9518,3.2495,23,20,0,

"Position",,,,"Open",
252.774,91.3003,26,23,0,

"Position",,,,"Open",
80,1,27,17,0,

"Position",,,,"Open",
103,1,28,15,0,

"Position",,,,"Open",
221,1,28,17,0,

