"Position",,,,"Open",
243.0793,35.5256,30.4649,28.2587,0,

"Position",,,,"Open",
212.935,34.8266,33.0158,30.9364,0,

"Position",,,,"Open",
213.6428,66.6454,27.983,24.0872,0,

"Position",,,,"Open",
216.9986,91.0611,24.5366,21.6702,0,

"Position",,,,"Open",
236.9521,89.1024,30.0609,26.9875,0,

"Position",,,,"Open",
167.9013,89.6341,29.4029,22.6475,0,

"Position",,,,"Open",
136.0343,88.8124,27.6529,25.5161,0,

"Position",,,,"Open",
135.2988,65.1468,29.072,24.2999,0,

"Position",,,,"Open",
128.0283,31.3296,38.3506,32.4342,0,

"Position",,,,"Open",
164.022,33.5779,36.2069,29.2171,0,

