"Position",,,,"Open",
55.4683,10.1815,60.9113,51.9852,0,

"Position",,,,"Open",
114.7565,4.8336,66.5826,53.6765,0,

"Position",,,,"Open",
55.1718,54.1019,62.9997,60.0172,0,

"Position",,,,"Open",
55.4242,102.8463,67.8135,61.8952,0,

"Position",,,,"Open",
118.0788,98.4659,73.0807,62.1555,0,

"Position",,,,"Open",
261.6413,96.3682,50.8112,49.8206,0,

"Position",,,,"Open",
252.8293,8.584,53.5168,47.6581,0,

"Position",,,,"Open",
199.1125,5.822,59.6811,47.7623,0,

"Position",,,,"Open",
205.0532,51.2723,58.6602,54.7162,0,

"Position",,,,"Open",
208.5244,99.8408,57.1816,51.2687,0,

