"Position",,,,"Open",
60.2044,1.9516,61.4038,52.2377,0,

"Position",,,,"Open",
121.6382,1.5017,59.549,48.1443,0,

"Position",,,,"Open",
65.2353,48.9088,56.6266,54.0559,0,

"Position",,,,"Open",
65.9686,93.5526,60.8624,55.6084,0,

"Position",,,,"Open",
125.7548,89.5774,63.7877,54.38,0,

"Position",,,,"Open",
255.1371,85.5735,47.7642,46.8753,0,

"Position",,,,"Open",
246.0371,1,63.2157,52.8439,0,

"Position",,,,"Open",
198.6581,1,62.923,45.1072,0,

"Position",,,,"Open",
207.616,45.436,50.2681,46.942,0,

"Position",,,,"Open",
208.3336,90.0908,51.0789,46.0739,0,

