"Position",,,,"Open",
195.785,95.2526,18.4854,15.0642,0,

"Position",,,,"Open",
215.9577,94.3978,22.815,18.1229,0,

"Position",,,,"Open",
163.0704,93.3639,22.7786,20.9335,0,

"Position",,,,"Open",
138.2569,76.1356,23.6781,17.6085,0,

"Position",,,,"Open",
140.0343,55.277,22.2978,21.4607,0,

"Position",,,,"Open",
160.1112,53.2238,25.9187,23.365,0,

"Position",,,,"Open",
136.9439,91.5631,24.1407,21.4133,0,

"Position",,,,"Open",
216.4147,56.8582,21.3022,18.5468,0,

"Position",,,,"Open",
195.0106,56.1319,20.0652,20.0651,0,

"Position",,,,"Open",
193.6284,75.2676,24.3367,20.9277,0,

"Position",,,,"Open",
136.0935,4.3529,26.6291,20.2743,0,

"Position",,,,"Open",
85.9402,7.2624,24.9679,20.9311,0,

"Position",,,,"Open",
265.6678,76.9907,20.4033,20.4036,0,

"Position",,,,"Open",
263.7019,57.9185,23.2643,25.0421,0,

"Position",,,,"Open",
243.8498,73.7807,26.6813,25.0166,0,

"Position",,,,"Open",
259.8596,10.8775,24.0481,21.367,0,

"Position",,,,"Open",
245.4354,58.398,20.4966,24.08,0,

"Position",,,,"Open",
265.7573,93.1302,21.8663,21.8662,0,

"Position",,,,"Open",
242.8144,93.8826,27.1795,22.6229,0,

"Position",,,,"Open",
160.8762,4.5247,24.4134,17.3263,0,

"Position",,,,"Open",
104,6,25,18,0,

"Position",,,,"Open",
211,8,26,18,0,

