"Position",,,,"Open",
87.6824,40.3565,46,43,0,

"Position",,,,"Open",
86.9801,74.9764,52,48,0,

"Position",,,,"Open",
130.7321,75.0479,56,47,0,

"Position",,,,"Open",
240.0311,3.7612,50,43,0,

"Position",,,,"Open",
245.225,77.7565,40,39,0,

"Position",,,,"Open",
203.4127,76.2527,47,43,0,

"Position",,,,"Open",
202.6518,44.5591,44,38,0,

"Position",,,,"Open",
196.2148,1,54,42,0,

"Position",,,,"Open",
87.7598,11.02,48,35,0,

"Position",,,,"Open",
133,8,51,30,0,

