"Position",,,,"Open",
202.2788,84.0157,17,14,0,

"Position",,,,"Open",
221.8303,83.2538,22,17,0,

"Position",,,,"Open",
170.0974,82.6181,21,20,0,

"Position",,,,"Open",
145.4588,65.5247,23,17,0,

"Position",,,,"Open",
147.0998,45.0722,22,21,0,

"Position",,,,"Open",
166.8226,42.7723,25,23,0,

"Position",,,,"Open",
144.2648,80.7582,23,20,0,

"Position",,,,"Open",
222.2899,46.3907,20,18,0,

"Position",,,,"Open",
201.3212,45.5881,19,19,0,

"Position",,,,"Open",
199.9459,64.4789,24,20,0,

"Position",,,,"Open",
142.6554,1,26,14,0,

"Position",,,,"Open",
270.5826,66.4007,20,20,0,

"Position",,,,"Open",
268.3062,47.6597,23,24,0,

"Position",,,,"Open",
249.2996,62.8489,26,24,0,

"Position",,,,"Open",
264.9773,2.5597,22,20,0,

"Position",,,,"Open",
251.047,48.1312,20,23,0,

"Position",,,,"Open",
270.394,81.8789,21,21,0,

"Position",,,,"Open",
248.2889,82.5128,27,22,0,

"Position",,,,"Open",
111.6203,1,25,15,0,

"Position",,,,"Open",
94,1,20,18,0,

"Position",,,,"Open",
168,1,21,15,0,

"Position",,,,"Open",
219,1,24,14,0,

