"Position",,,,"Open",
216.0868,59.5495,23,23,0,

"Position",,,,"Open",
216.4712,102.4594,23,18,0,

"Position",,,,"Open",
239.6645,101.9769,24,19,0,

"Position",,,,"Open",
182.252,100.1564,23,21,0,

"Position",,,,"Open",
155.5125,81.5552,24,18,0,

"Position",,,,"Open",
156.6698,58.0719,23,22,0,

"Position",,,,"Open",
179.0894,57.268,27,24,0,

"Position",,,,"Open",
154.4768,98.8955,24,21,0,

"Position",,,,"Open",
240.276,61.6805,21,18,0,

"Position",,,,"Open",
215,82,25,20,0,

"Position",,,,"Open",
152.5442,3.6997,27,20,0,

"Position",,,,"Open",
96.9201,5.7372,25,20,0,

"Position",,,,"Open",
291.0742,84.0306,20,20,0,

"Position",,,,"Open",
289.5103,98.2964,22,22,0,

"Position",,,,"Open",
289.4443,63.1554,23,25,0,

"Position",,,,"Open",
268.85,63.3209,25,25,0,

"Position",,,,"Open",
268.2989,80.3933,27,25,0,

"Position",,,,"Open",
284.8224,12.9421,23,21,0,

"Position",,,,"Open",
265.404,100.2258,26,23,0,

"Position",,,,"Open",
180.1093,4.4245,25,17,0,

"Position",,,,"Open",
235,7,28,18,0,

"Position",,,,"Open",
122,5,23,16,0,

