"Position",,,,"Open",
229.4274,38.513,33.9005,31.0562,0,

"Position",,,,"Open",
195.3916,36.6273,37.4676,35.1981,0,

"Position",,,,"Open",
196.4391,71.5692,32.2182,27.7903,0,

"Position",,,,"Open",
198.381,97.4064,31.3714,27.5912,0,

"Position",,,,"Open",
225.254,97.5429,31.848,28.3009,0,

"Position",,,,"Open",
146.4317,96.755,34.1322,25.7938,0,

"Position",,,,"Open",
111.0062,95.641,32.7777,30.2162,0,

"Position",,,,"Open",
111.2955,69.2461,33.0779,27.3657,0,

"Position",,,,"Open",
105.012,33.2222,42.9066,35.4979,0,

"Position",,,,"Open",
143.6913,35.1162,41.2281,33.2504,0,

