"Position",,,,"Open",
85.3901,28.904,47,44,0,

"Position",,,,"Open",
84.1854,63.7451,53,49,0,

"Position",,,,"Open",
128.8401,63.8702,57,48,0,

"Position",,,,"Open",
240.5387,1,51,37,0,

"Position",,,,"Open",
246.0043,68.6196,40,39,0,

"Position",,,,"Open",
202.5038,65.9966,48,44,0,

"Position",,,,"Open",
201.8406,34.1797,46,40,0,

"Position",,,,"Open",
195.8645,1,55,33,0,

"Position",,,,"Open",
86.9274,1,48,34,0,

"Position",,,,"Open",
132.1749,1.1769,52,28,0,

