"Position",,,,"Open",
186.2576,57.0978,25,23,0,

"Position",,,,"Open",
183.5736,84.4574,25,19,0,

"Position",,,,"Open",
186.3729,106.6628,20,18,0,

"Position",,,,"Open",
207.3456,103.3263,31,26,0,

"Position",,,,"Open",
146.4603,105.9194,25,22,0,

"Position",,,,"Open",
117.9943,85.358,24,19,0,

"Position",,,,"Open",
117.6707,58.5483,27,22,0,

"Position",,,,"Open",
143.477,56.7647,27,21,0,

"Position",,,,"Open",
116.1046,103.6793,28,24,0,

"Position",,,,"Open",
210.4481,59.5773,24,22,0,

"Position",,,,"Open",
144.2967,1,28,19,0,

"Position",,,,"Open",
115.6457,1,28,20,0,

"Position",,,,"Open",
82.3011,1.4118,27,20,0,

"Position",,,,"Open",
57.5365,4.8743,26,20,0,

"Position",,,,"Open",
266.7856,81.5195,23,23,0,

"Position",,,,"Open",
266.0891,98.6042,25,25,0,

"Position",,,,"Open",
266.3571,59.745,24,26,0,

"Position",,,,"Open",
243.4193,60.1337,26,26,0,

"Position",,,,"Open",
241.1198,79.4016,29,27,0,

"Position",,,,"Open",
259.9166,5.8402,25,22,0,

"Position",,,,"Open",
240.4429,102.0026,27,24,0,

"Position",,,,"Open",
206,1,28,23,0,

