"Position",,,,"Open",
202.8663,52.6585,25,24,0,

"Position",,,,"Open",
202.5955,76.2659,26,20,0,

"Position",,,,"Open",
202.6411,95.9151,25,20,0,

"Position",,,,"Open",
227.4082,95.6065,25,20,0,

"Position",,,,"Open",
167.9668,93.7576,25,22,0,

"Position",,,,"Open",
140.6736,75.263,26,19,0,

"Position",,,,"Open",
141.937,51.4028,25,23,0,

"Position",,,,"Open",
165.6408,50.9437,28,24,0,

"Position",,,,"Open",
139.6684,93.025,25,22,0,

"Position",,,,"Open",
227.878,54.9455,22,19,0,

"Position",,,,"Open",
165.7958,1,27,16,0,

"Position",,,,"Open",
138.9429,1,27,16,0,

"Position",,,,"Open",
82.8427,1,25,19,0,

"Position",,,,"Open",
280.3936,77.4687,21,21,0,

"Position",,,,"Open",
279.0645,92.3614,23,23,0,

"Position",,,,"Open",
279.1263,56.6247,23,25,0,

"Position",,,,"Open",
257.788,56.699,25,25,0,

"Position",,,,"Open",
256.135,73.5537,28,26,0,

"Position",,,,"Open",
274.6891,6.8036,23,20,0,

"Position",,,,"Open",
253.9185,93.9363,27,24,0,

"Position",,,,"Open",
107,1,25,16,0,

"Position",,,,"Open",
222,1,28,19,0,

