"Position",,,,"Open",
55.268,8.2597,60.9297,52.0658,0,

"Position",,,,"Open",
114.605,2.6817,66.6746,53.7987,0,

"Position",,,,"Open",
55.2047,52.1177,63.0881,60.1193,0,

"Position",,,,"Open",
55.3947,100.5535,68.3468,62.4561,0,

"Position",,,,"Open",
118.357,96.2376,73.1822,62.2919,0,

"Position",,,,"Open",
261.7686,93.7643,50.986,49.996,0,

"Position",,,,"Open",
252.6758,6.2079,53.5043,47.6541,0,

"Position",,,,"Open",
198.8081,3.4193,59.8465,47.9814,0,

"Position",,,,"Open",
205.3787,48.877,58.5915,54.6727,0,

"Position",,,,"Open",
208.7883,97.2744,57.3731,51.4879,0,

