"Position",,,,"Open",
59.629,1,61.2973,50.7157,0,

"Position",,,,"Open",
121.0337,1,59.457,45.8322,0,

"Position",,,,"Open",
64.3109,46.2336,56.8078,54.228,0,

"Position",,,,"Open",
64.9463,90.9448,61.3297,56.0637,0,

"Position",,,,"Open",
124.9021,86.9912,64.1465,54.6597,0,

"Position",,,,"Open",
254.5975,83.293,48.2153,47.3215,0,

"Position",,,,"Open",
245.5926,1,62.8356,50.2625,0,

"Position",,,,"Open",
198.1093,1,62.8564,42.5459,0,

"Position",,,,"Open",
206.9994,42.8504,50.4193,47.0884,0,

"Position",,,,"Open",
207.6003,87.5834,51.4443,46.3945,0,

