"Position",,,,"Open",
206.6597,107.5929,21.05,16.9135,0,

"Position",,,,"Open",
228.7652,107.0471,23.4686,18.6777,0,

"Position",,,,"Open",
173.1582,105.4729,24.0502,22.1209,0,

"Position",,,,"Open",
147.4676,87.6009,24.5318,17.8566,0,

"Position",,,,"Open",
149.272,65.4036,22.7922,21.8458,0,

"Position",,,,"Open",
170.6879,64.1741,26.5775,23.8048,0,

"Position",,,,"Open",
145.5683,103.2534,25.8927,22.9955,0,

"Position",,,,"Open",
229.6862,67.9692,21.5275,18.6463,0,

"Position",,,,"Open",
206.1109,65.8395,22.4033,22.4033,0,

"Position",,,,"Open",
205.3768,86.6837,25.8235,22.2073,0,

"Position",,,,"Open",
145.4449,11.8933,27.3573,20.6617,0,

"Position",,,,"Open",
91.7235,14.0883,25.5645,20.0957,0,

"Position",,,,"Open",
280.0281,88.7279,20.7727,20.7728,0,

"Position",,,,"Open",
278.3596,68.751,23.2661,25.1244,0,

"Position",,,,"Open",
257.4731,85.4406,27.3085,25.5727,0,

"Position",,,,"Open",
274.1231,18.8755,24.6669,21.9606,0,

"Position",,,,"Open",
258.8008,68.3181,21.9412,25.8149,0,

"Position",,,,"Open",
280.7485,106.054,21.8019,21.8019,0,

"Position",,,,"Open",
256.4547,106.68,28.3713,23.4503,0,

"Position",,,,"Open",
171.7538,12.0687,25.5102,17.9507,0,

"Position",,,,"Open",
227,14,26,18,0,

"Position",,,,"Open",
116,12,25,18,0,

