"Position",,,,"Open",
214.999,56.4146,24,24,0,

"Position",,,,"Open",
215.4709,99.2751,23,18,0,

"Position",,,,"Open",
238.9248,98.8861,23,18,0,

"Position",,,,"Open",
181.1685,97.1706,23,21,0,

"Position",,,,"Open",
154.3611,78.676,24,18,0,

"Position",,,,"Open",
155.4434,55.102,24,23,0,

"Position",,,,"Open",
178.0156,54.2974,27,24,0,

"Position",,,,"Open",
153.2899,95.9257,24,21,0,

"Position",,,,"Open",
239.4204,58.6337,21,18,0,

"Position",,,,"Open",
215,80,25,20,0,

"Position",,,,"Open",
151.3628,1,27,20,0,

"Position",,,,"Open",
95.5999,3.2129,26,20,0,

"Position",,,,"Open",
290.5465,81.0686,20,20,0,

"Position",,,,"Open",
289.1743,95.432,22,22,0,

"Position",,,,"Open",
288.8701,60.2661,23,25,0,

"Position",,,,"Open",
268.1591,60.2758,25,25,0,

"Position",,,,"Open",
267.4566,77.2154,27,25,0,

"Position",,,,"Open",
284.1136,10.2367,23,20,0,

"Position",,,,"Open",
264.713,96.9595,27,24,0,

"Position",,,,"Open",
178.9242,1.6554,26,18,0,

"Position",,,,"Open",
234,4,28,18,0,

"Position",,,,"Open",
121,2,23,16,0,

