"Position",,,,"Open",
236.2752,18.7243,39.1072,35.6043,0,

"Position",,,,"Open",
198.9155,15.6758,41.0236,38.4518,0,

"Position",,,,"Open",
200.2645,51.9252,39.1407,33.8006,0,

"Position",,,,"Open",
201.9493,81.0817,38.8467,33.997,0,

"Position",,,,"Open",
237.7018,82.7265,35.1682,30.4499,0,

"Position",,,,"Open",
142.4166,79.5871,43.7966,33.3682,0,

"Position",,,,"Open",
103.6197,80.8188,38.9131,35.6904,0,

"Position",,,,"Open",
103.2611,49.1798,41.0339,33.9102,0,

"Position",,,,"Open",
98.4099,13.227,47.3854,38.757,0,

"Position",,,,"Open",
141.6745,13.891,46.3009,37.2019,0,

