"Position",,,,"Open",
69.2595,1,56.9071,41.7811,0,

"Position",,,,"Open",
122.6605,1,54.3591,35.8483,0,

"Position",,,,"Open",
76.2587,35.0676,51.8704,48.5088,0,

"Position",,,,"Open",
76.8976,73.1553,55.7916,51.415,0,

"Position",,,,"Open",
123.8473,72.3796,60.0042,50.2674,0,

"Position",,,,"Open",
238.886,1,51.4231,40.8993,0,

"Position",,,,"Open",
247.105,74.5412,43.4644,41.8865,0,

"Position",,,,"Open",
200.2537,72.7906,51.8264,47.1325,0,

"Position",,,,"Open",
198.7071,38.8922,49.0681,42.2459,0,

"Position",,,,"Open",
191.5535,1,57.7958,38.8135,0,

