"Position",,,,"Open",
61.1619,13.2936,60.8949,52.1214,0,

"Position",,,,"Open",
120.4972,8.0664,65.938,53.1081,0,

"Position",,,,"Open",
61.0634,57.0903,63.0819,60.1628,0,

"Position",,,,"Open",
62.1628,105.8552,66.5971,60.7663,0,

"Position",,,,"Open",
124.8517,101.4002,71.422,60.8764,0,

"Position",,,,"Open",
263.3394,96.1412,53.3069,52.3322,0,

"Position",,,,"Open",
257.0513,10.8373,53.648,47.7049,0,

"Position",,,,"Open",
203.7698,8.0253,59.6434,48.1841,0,

"Position",,,,"Open",
210.2901,53.6499,57.6342,53.8421,0,

"Position",,,,"Open",
213.2639,101.9405,56.5991,50.8633,0,

