"Position",,,,"Open",
192.0097,55.5822,26,25,0,

"Position",,,,"Open",
191.9666,79.8783,27,21,0,

"Position",,,,"Open",
192.1219,100.3718,27,22,0,

"Position",,,,"Open",
218.4467,99.5081,26,21,0,

"Position",,,,"Open",
156.744,99.0021,27,24,0,

"Position",,,,"Open",
128.6507,80.7754,26,19,0,

"Position",,,,"Open",
129.3508,55.9443,26,24,0,

"Position",,,,"Open",
153.6918,54.9066,30,26,0,

"Position",,,,"Open",
128.3669,99.5513,26,22,0,

"Position",,,,"Open",
217.9065,57.5048,23,20,0,

"Position",,,,"Open",
153.2622,1,27,19,0,

"Position",,,,"Open",
125.7697,1,28,20,0,

"Position",,,,"Open",
92.819,1.3078,27,20,0,

"Position",,,,"Open",
69.0072,4.7306,26,20,0,

"Position",,,,"Open",
272.2396,78.9208,22,22,0,

"Position",,,,"Open",
271.4206,94.9128,23,23,0,

"Position",,,,"Open",
270.9491,57.7086,24,26,0,

"Position",,,,"Open",
248.8317,58.1108,25,25,0,

"Position",,,,"Open",
247.7299,76.4807,28,26,0,

"Position",,,,"Open",
264.3965,5.8331,24,21,0,

"Position",,,,"Open",
246.2422,97.6045,27,24,0,

"Position",,,,"Open",
213,2,27,20,0,

