"Position",,,,"Open",
192.0691,69.2285,24.68,22.894,0,

"Position",,,,"Open",
189.8647,96.2598,24.4992,18.43,0,

"Position",,,,"Open",
192.3935,117.5513,19.8946,18.1806,0,

"Position",,,,"Open",
212.5581,114.2126,31.1831,26.7375,0,

"Position",,,,"Open",
153.5941,117.0649,24.1385,21.5584,0,

"Position",,,,"Open",
125.1955,96.4534,23.3233,19.0242,0,

"Position",,,,"Open",
124.4185,69.8807,27.6417,22.8837,0,

"Position",,,,"Open",
149.9447,68.7647,26.5887,21.3361,0,

"Position",,,,"Open",
123.3687,114.1103,28.3266,24.1722,0,

"Position",,,,"Open",
215.7315,71.5573,24.5551,21.7679,0,

"Position",,,,"Open",
149.8644,12.7191,28.2633,19.5074,0,

"Position",,,,"Open",
121.4793,12.411,28.7777,21.1172,0,

"Position",,,,"Open",
88.2369,12.5464,27.6579,20.5249,0,

"Position",,,,"Open",
63.8552,15.6004,26.5784,20.7053,0,

"Position",,,,"Open",
271.0784,92.8767,23.3975,23.3975,0,

"Position",,,,"Open",
270.3677,109.583,24.5692,24.569,0,

"Position",,,,"Open",
270.3654,71.3378,24.6763,26.6341,0,

"Position",,,,"Open",
247.7071,71.9201,26.1153,26.1153,0,

"Position",,,,"Open",
246.2202,91.102,28.5835,26.6263,0,

"Position",,,,"Open",
263.6304,17.4264,25.7435,22.6834,0,

"Position",,,,"Open",
245.1557,113.0329,27.0562,24.1439,0,

"Position",,,,"Open",
209,14,28,21,0,

