"Position",,,,"Open",
60.4972,7.9254,61.7703,52.9921,0,

"Position",,,,"Open",
120.1411,2.446,66.7678,53.9141,0,

"Position",,,,"Open",
60.5868,51.5722,64.2281,61.2847,0,

"Position",,,,"Open",
61.5671,100.4666,68.4351,62.5525,0,

"Position",,,,"Open",
124.7197,95.7852,73.0337,62.3428,0,

"Position",,,,"Open",
265.7009,92.0215,52.0028,51.0029,0,

"Position",,,,"Open",
257.4246,5.5877,53.4687,47.6778,0,

"Position",,,,"Open",
204.2077,2.9164,59.6227,47.9847,0,

"Position",,,,"Open",
210.5894,48.1683,58.2694,54.3869,0,

"Position",,,,"Open",
213.9584,96.6346,57.1685,51.3355,0,

