"Position",,,,"Open",
196.816,56.5704,23,23,0,

"Position",,,,"Open",
197.772,98.5338,24,19,0,

"Position",,,,"Open",
221.3083,97.216,24,20,0,

"Position",,,,"Open",
163.652,98.6159,24,22,0,

"Position",,,,"Open",
136.8367,81.2595,24,18,0,

"Position",,,,"Open",
137.08,57.8111,24,23,0,

"Position",,,,"Open",
159.8872,56.191,27,25,0,

"Position",,,,"Open",
136.1273,98.2357,25,22,0,

"Position",,,,"Open",
221.2198,57.6295,22,19,0,

"Position",,,,"Open",
195.5711,77.9428,26,22,0,

"Position",,,,"Open",
132.5914,5.2117,27,20,0,

"Position",,,,"Open",
77.3943,9.2195,26,20,0,

"Position",,,,"Open",
274.3454,77.5892,20,20,0,

"Position",,,,"Open",
273.2033,91.7989,22,22,0,

"Position",,,,"Open",
272.0195,56.7011,24,25,0,

"Position",,,,"Open",
250.6339,57.4044,26,26,0,

"Position",,,,"Open",
250.711,75.2216,26,25,0,

"Position",,,,"Open",
265.2419,6.3491,25,22,0,

"Position",,,,"Open",
247.2152,93.7019,28,25,0,

"Position",,,,"Open",
159.5529,3.7025,26,18,0,

"Position",,,,"Open",
102,8,23,16,0,

"Position",,,,"Open",
214,6,28,18,0,

