"Position",,,,"Open",
81.016,1,56.8988,45.7074,0,

"Position",,,,"Open",
134.4949,1,53.9408,39.3052,0,

"Position",,,,"Open",
88.727,38.6464,51.2387,47.9422,0,

"Position",,,,"Open",
89.5386,76.0611,55.0911,50.7808,0,

"Position",,,,"Open",
136.2807,75.3405,58.8056,49.3089,0,

"Position",,,,"Open",
249.1129,2.1052,50.2553,42.5948,0,

"Position",,,,"Open",
256.5732,76.841,42.0975,40.6126,0,

"Position",,,,"Open",
211.8229,75.6896,49.7814,45.3013,0,

"Position",,,,"Open",
210.0968,42.4209,47.4031,40.7973,0,

"Position",,,,"Open",
203.2072,1,55.7527,41.5296,0,

