"Position",,,,"Open",
50.5006,13.3808,60.4069,51.4049,0,

"Position",,,,"Open",
109.4248,8.1046,66.5044,53.5397,0,

"Position",,,,"Open",
50.2633,57.474,62.3764,59.3933,0,

"Position",,,,"Open",
50.6796,106.5434,66.4432,60.5077,0,

"Position",,,,"Open",
112.595,102.0107,72.9294,62.0044,0,

"Position",,,,"Open",
256.4356,99.0389,51.813,50.8232,0,

"Position",,,,"Open",
247.6937,11.2644,54.465,48.5108,0,

"Position",,,,"Open",
193.7343,8.8165,60.1077,48.1124,0,

"Position",,,,"Open",
199.6757,54.3776,58.9551,54.9655,0,

"Position",,,,"Open",
202.5547,102.4054,58.7964,52.9094,0,

