"Position",,,,"Open",
185.3837,40.1712,27,25,0,

"Position",,,,"Open",
182.8214,67.5876,28,21,0,

"Position",,,,"Open",
186.4322,90.4291,23,21,0,

"Position",,,,"Open",
210.2118,87.6231,31,26,0,

"Position",,,,"Open",
145.0805,90.7915,28,25,0,

"Position",,,,"Open",
114.727,70.3649,26,22,0,

"Position",,,,"Open",
114.0976,44.2842,28,23,0,

"Position",,,,"Open",
141.1143,40.9605,29,23,0,

"Position",,,,"Open",
113.2771,89.2262,32,27,0,

"Position",,,,"Open",
211.2982,42.5775,26,23,0,

"Position",,,,"Open",
245.2174,42.6852,27,27,0,

"Position",,,,"Open",
243.5613,62.6985,30,28,0,

"Position",,,,"Open",
243,86,31,23,0,

"Position",,,,"Open",
269.5592,64.0117,26,26,0,

"Position",,,,"Open",
269.8606,82.0323,26,26,0,

"Position",,,,"Open",
268.9949,42.3816,25,27,0,

