"Position",,,,"Open",
196.7746,56.5584,24,24,0,

"Position",,,,"Open",
197.7482,98.497,24,19,0,

"Position",,,,"Open",
221.2849,97.2245,24,20,0,

"Position",,,,"Open",
163.6904,98.6176,24,22,0,

"Position",,,,"Open",
136.7986,81.1968,24,18,0,

"Position",,,,"Open",
137.0089,57.7885,24,24,0,

"Position",,,,"Open",
159.8295,56.1418,28,25,0,

"Position",,,,"Open",
136.058,98.1541,25,22,0,

"Position",,,,"Open",
221.1897,57.6106,22,19,0,

"Position",,,,"Open",
195.6035,77.9632,26,22,0,

"Position",,,,"Open",
132.598,5.2206,27,20,0,

"Position",,,,"Open",
77.4083,9.2306,26,20,0,

"Position",,,,"Open",
274.3728,77.5556,20,20,0,

"Position",,,,"Open",
273.2575,91.7725,22,22,0,

"Position",,,,"Open",
272.0226,56.6969,24,25,0,

"Position",,,,"Open",
250.6225,57.3704,26,26,0,

"Position",,,,"Open",
250.674,75.0986,27,25,0,

"Position",,,,"Open",
265.2414,6.3382,25,22,0,

"Position",,,,"Open",
247.0972,93.5887,28,25,0,

"Position",,,,"Open",
159.5597,3.6853,26,18,0,

"Position",,,,"Open",
102,8,23,16,0,

"Position",,,,"Open",
214,6,28,18,0,

