"Position",,,,"Open",
56.8259,6.7769,61.3618,52.5049,0,

"Position",,,,"Open",
116.3406,1.2916,66.7729,53.8902,0,

"Position",,,,"Open",
56.4438,50.5062,63.6104,60.6335,0,

"Position",,,,"Open",
56.6307,99.2424,68.8308,62.8994,0,

"Position",,,,"Open",
120.0325,94.7209,73.5504,62.6559,0,

"Position",,,,"Open",
263.6225,92.6616,50.7467,49.7602,0,

"Position",,,,"Open",
254.4017,5.0572,53.2903,47.4797,0,

"Position",,,,"Open",
200.7095,2.1908,59.6705,47.8131,0,

"Position",,,,"Open",
207.1197,47.5383,58.3884,54.4591,0,

"Position",,,,"Open",
210.2944,95.7799,57.5352,51.6464,0,

