"Position",,,,"Open",
196.7817,56.5608,23,23,0,

"Position",,,,"Open",
197.7568,98.5054,24,19,0,

"Position",,,,"Open",
221.2849,97.2317,24,20,0,

"Position",,,,"Open",
163.6874,98.6183,24,22,0,

"Position",,,,"Open",
136.8022,81.2012,24,18,0,

"Position",,,,"Open",
137.0069,57.7798,24,24,0,

"Position",,,,"Open",
159.8128,56.1221,28,25,0,

"Position",,,,"Open",
136.0565,98.1581,25,22,0,

"Position",,,,"Open",
221.1901,57.614,22,19,0,

"Position",,,,"Open",
195.6024,77.9608,26,22,0,

"Position",,,,"Open",
132.597,5.2204,27,20,0,

"Position",,,,"Open",
77.4087,9.2301,26,20,0,

"Position",,,,"Open",
274.3714,77.5506,20,20,0,

"Position",,,,"Open",
273.2699,91.7758,22,22,0,

"Position",,,,"Open",
272.0035,56.6951,24,25,0,

"Position",,,,"Open",
250.5793,57.3707,26,26,0,

"Position",,,,"Open",
250.6666,75.093,27,25,0,

"Position",,,,"Open",
265.2422,6.3387,25,22,0,

"Position",,,,"Open",
247.0918,93.5904,28,25,0,

"Position",,,,"Open",
159.5604,3.6867,26,18,0,

"Position",,,,"Open",
214,6,28,18,0,

"Position",,,,"Open",
102,8,23,16,0,

