"Position",,,,"Open",
65.2069,12.5853,61.6193,49.848,0,

"Position",,,,"Open",
119.9939,8.7947,60.4827,48.784,0,

"Position",,,,"Open",
67.0358,53.0004,60.7064,56.7789,0,

"Position",,,,"Open",
69.5143,96.797,60.6051,55.7178,0,

"Position",,,,"Open",
123.7515,94.2254,65.5695,54.7692,0,

"Position",,,,"Open",
245.7149,9.9861,53.7969,44.9312,0,

"Position",,,,"Open",
255.578,88.7842,49.7881,47.8257,0,

"Position",,,,"Open",
204.1056,90.5903,58.1256,52.2522,0,

"Position",,,,"Open",
200.8938,50.8818,57.7008,48.8349,0,

"Position",,,,"Open",
195.477,7.3801,59.4598,46.7406,0,

