"Position",,,,"Open",
223.1861,35.8096,34.5473,31.6276,0,

"Position",,,,"Open",
188.9724,34.1952,37.6225,35.3082,0,

"Position",,,,"Open",
189.3496,68.7996,33.2491,28.6555,0,

"Position",,,,"Open",
191.1031,94.8512,32.396,28.5283,0,

"Position",,,,"Open",
218.8005,95.1222,32.3116,28.7509,0,

"Position",,,,"Open",
138.7841,94.3378,34.6354,26.1037,0,

"Position",,,,"Open",
103.2951,93.2854,32.9885,30.4315,0,

"Position",,,,"Open",
103.6821,66.7453,33.3455,27.6016,0,

"Position",,,,"Open",
97.805,30.8667,43.0111,35.4554,0,

"Position",,,,"Open",
136.5013,32.2422,41.8105,33.8112,0,

