"Position",,,,"Open",
231.7293,10.5934,42.3768,38.4562,0,

"Position",,,,"Open",
191.5902,6.9555,43.7448,40.9212,0,

"Position",,,,"Open",
191.9751,43.2264,43.7873,37.3248,0,

"Position",,,,"Open",
191.9376,73.9347,45.2764,39.7192,0,

"Position",,,,"Open",
233.4645,76.6331,39.491,33.9782,0,

"Position",,,,"Open",
128.9807,73.2748,48.8763,36.6752,0,

"Position",,,,"Open",
86.2266,73.8591,44.6686,40.9892,0,

"Position",,,,"Open",
86.682,40.4902,45.7077,37.404,0,

"Position",,,,"Open",
86.366,5.7603,47.8091,38.2601,0,

"Position",,,,"Open",
131.39,5.0457,48.5208,39.1149,0,

