"Position",,,,"Open",
60.1311,7.3298,61.6497,52.8359,0,

"Position",,,,"Open",
119.7543,1.7337,66.8536,53.9753,0,

"Position",,,,"Open",
59.9795,50.8961,64.3136,61.3649,0,

"Position",,,,"Open",
60.9504,99.8288,68.6726,62.7846,0,

"Position",,,,"Open",
124.1424,95.0532,73.3267,62.5846,0,

"Position",,,,"Open",
266.0772,91.8936,51.254,50.2612,0,

"Position",,,,"Open",
257.2917,5.0692,53.3339,47.5676,0,

"Position",,,,"Open",
203.9136,2.3488,59.6866,47.9855,0,

"Position",,,,"Open",
210.2736,47.5721,58.4347,54.5369,0,

"Position",,,,"Open",
213.8428,95.9834,57.1735,51.3589,0,

