"Position",,,,"Open",
243.1541,34.9751,32.146,29.6011,0,

"Position",,,,"Open",
210.6963,33.5613,35.7427,33.5619,0,

"Position",,,,"Open",
211.7694,67.3046,30.2626,26.2146,0,

"Position",,,,"Open",
214.6765,92.881,27.5677,24.2342,0,

"Position",,,,"Open",
238.3642,91.7226,30.9507,27.5424,0,

"Position",,,,"Open",
163.1634,91.3434,32.4927,24.7047,0,

"Position",,,,"Open",
129.2079,90.3447,30.9049,28.5527,0,

"Position",,,,"Open",
128.6327,64.8936,32.0199,26.6935,0,

"Position",,,,"Open",
121.8393,29.9289,41.3284,34.5228,0,

"Position",,,,"Open",
160.2036,32.3663,38.7992,31.0408,0,

