"Position",,,,"Open",
57.3021,11.7214,57.191,49.0153,0,

"Position",,,,"Open",
114.4047,5.8578,63.3067,51.0447,0,

"Position",,,,"Open",
57.7486,53.7662,59.647,56.9338,0,

"Position",,,,"Open",
59.066,100.3488,62.961,57.3968,0,

"Position",,,,"Open",
118.3819,95.9035,68.8494,58.6757,0,

"Position",,,,"Open",
254.175,91.0213,51.773,50.8372,0,

"Position",,,,"Open",
247.7864,7.2792,54.7421,49.1271,0,

"Position",,,,"Open",
196.435,6.1728,56.9409,45.6514,0,

"Position",,,,"Open",
202.8068,50.5494,54.3483,50.7605,0,

"Position",,,,"Open",
205.3271,96.9584,53.5183,48.1774,0,

