"Position",,,,"Open",
202.1761,51.6628,25,24,0,

"Position",,,,"Open",
202.2788,75.367,25,20,0,

"Position",,,,"Open",
202.5675,95.3073,24,20,0,

"Position",,,,"Open",
227.1732,94.7369,25,19,0,

"Position",,,,"Open",
167.9778,93.2403,25,22,0,

"Position",,,,"Open",
140.7057,74.7903,26,19,0,

"Position",,,,"Open",
141.5685,50.7108,25,23,0,

"Position",,,,"Open",
164.7488,49.8004,29,25,0,

"Position",,,,"Open",
139.9598,92.6678,25,22,0,

"Position",,,,"Open",
226.8685,53.4846,22,20,0,

"Position",,,,"Open",
164.7226,1,26,14,0,

"Position",,,,"Open",
137.7702,1,27,16,0,

"Position",,,,"Open",
81.8938,1,26,19,0,

"Position",,,,"Open",
279.4145,75.8688,21,21,0,

"Position",,,,"Open",
278.2105,90.8693,23,23,0,

"Position",,,,"Open",
277.98,54.9669,23,25,0,

"Position",,,,"Open",
256.579,54.9527,25,25,0,

"Position",,,,"Open",
255.6138,72.4047,27,26,0,

"Position",,,,"Open",
272.5344,4.6547,23,21,0,

"Position",,,,"Open",
253.5799,93.0084,26,23,0,

"Position",,,,"Open",
108,1,24,17,0,

"Position",,,,"Open",
221,1,28,17,0,

