"Position",,,,"Open",
204.2158,93.3877,18,14,0,

"Position",,,,"Open",
224.0792,92.8645,22,17,0,

"Position",,,,"Open",
172.1209,91.9884,21,20,0,

"Position",,,,"Open",
147.2007,74.5786,23,17,0,

"Position",,,,"Open",
149.1409,54.1488,21,21,0,

"Position",,,,"Open",
168.8784,51.977,25,23,0,

"Position",,,,"Open",
145.8858,89.753,23,21,0,

"Position",,,,"Open",
224.6016,55.8463,21,18,0,

"Position",,,,"Open",
203.6566,55.1638,19,19,0,

"Position",,,,"Open",
202.1083,73.9883,24,20,0,

"Position",,,,"Open",
144.9481,3.5519,26,20,0,

"Position",,,,"Open",
94.8509,6.2866,24,20,0,

"Position",,,,"Open",
272.9025,76.0452,20,20,0,

"Position",,,,"Open",
270.9113,57.2875,22,24,0,

"Position",,,,"Open",
251.5636,72.4866,26,24,0,

"Position",,,,"Open",
267.4035,11.108,23,21,0,

"Position",,,,"Open",
253.3316,57.6155,20,23,0,

"Position",,,,"Open",
272.7644,91.5551,21,21,0,

"Position",,,,"Open",
250.6494,92.3097,26,22,0,

"Position",,,,"Open",
169.5276,3.8491,24,17,0,

"Position",,,,"Open",
113.7686,6.1083,25,18,0,

"Position",,,,"Open",
222,7,22,19,0,

