"Position",,,,"Open",
50.89,1,60.2775,41.3597,0,

"Position",,,,"Open",
110.4292,1,62.2703,36.7813,0,

"Position",,,,"Open",
54.4825,34.9606,59.1645,56.5771,0,

"Position",,,,"Open",
55.3447,80.265,64.1675,58.8259,0,

"Position",,,,"Open",
114.2495,75.1725,68.8685,58.877,0,

"Position",,,,"Open",
249.5866,71.9023,51.1341,50.2098,0,

"Position",,,,"Open",
241.5626,1,56.405,37.6954,0,

"Position",,,,"Open",
191.3421,1,57.6064,31.9421,0,

"Position",,,,"Open",
199.3131,31.207,53.0288,49.6449,0,

"Position",,,,"Open",
201.3212,76.7642,53.1021,47.8159,0,

