"Position",,,,"Open",
60.8794,9.4737,61.7615,52.9796,0,

"Position",,,,"Open",
120.5759,3.9487,66.72,53.8672,0,

"Position",,,,"Open",
60.9539,53.2332,64.2223,61.2777,0,

"Position",,,,"Open",
61.9013,102.3635,68.2773,62.3717,0,

"Position",,,,"Open",
125.1284,97.5182,72.9699,62.2849,0,

"Position",,,,"Open",
265.6078,93.2555,52.5476,51.5551,0,

"Position",,,,"Open",
257.7201,6.9549,53.5282,47.7252,0,

"Position",,,,"Open",
204.4935,4.3071,59.6936,48.089,0,

"Position",,,,"Open",
210.883,49.6223,58.4936,54.6486,0,

"Position",,,,"Open",
214.2085,98.1739,57.4135,51.6481,0,

