"Position",,,,"Open",
246.3058,34.52,29.9351,27.8208,0,

"Position",,,,"Open",
216.6557,34.0568,32.5202,30.4725,0,

"Position",,,,"Open",
217.1619,65.6055,27.4485,23.6631,0,

"Position",,,,"Open",
220.9938,90.0333,23.653,20.8311,0,

"Position",,,,"Open",
239.7145,87.5149,30.1163,27.0792,0,

"Position",,,,"Open",
172.2661,88.7032,28.8013,22.2283,0,

"Position",,,,"Open",
140.8699,88.1544,27.0452,24.9371,0,

"Position",,,,"Open",
139.9734,64.6957,28.5773,23.945,0,

"Position",,,,"Open",
132.6483,30.9697,38.0097,32.2302,0,

"Position",,,,"Open",
168.1197,32.9825,35.8909,29.0231,0,

