"Position",,,,"Open",
66.8999,10.1552,61.414,49.5561,0,

"Position",,,,"Open",
121.6871,6.1053,60.3887,48.6457,0,

"Position",,,,"Open",
68.76,50.0555,60.6111,56.6675,0,

"Position",,,,"Open",
71.2246,93.6943,60.8178,55.9039,0,

"Position",,,,"Open",
125.7883,91.1081,65.5149,54.653,0,

"Position",,,,"Open",
247.3727,7.4046,53.4571,44.6122,0,

"Position",,,,"Open",
257.5945,85.7077,49.7095,47.7458,0,

"Position",,,,"Open",
206.2079,87.3851,58.0281,52.1453,0,

"Position",,,,"Open",
202.7861,47.8201,57.4046,48.5818,0,

"Position",,,,"Open",
197.1884,4.6772,59.2356,46.5297,0,

