"Position",,,,"Open",
205.883,64.9236,26,25,0,

"Position",,,,"Open",
205.9526,88.988,27,22,0,

"Position",,,,"Open",
206.4925,109.6059,27,22,0,

"Position",,,,"Open",
232.8712,108.2776,27,21,0,

"Position",,,,"Open",
170.8258,108.9302,27,24,0,

"Position",,,,"Open",
141.8623,90.5699,27,20,0,

"Position",,,,"Open",
142.0245,65.656,27,25,0,

"Position",,,,"Open",
167.2435,64.6197,30,26,0,

"Position",,,,"Open",
142.1156,109.5858,26,22,0,

"Position",,,,"Open",
231.9054,66.6029,23,20,0,

"Position",,,,"Open",
165.2629,10.1944,28,19,0,

"Position",,,,"Open",
137.4311,10.6384,28,20,0,

"Position",,,,"Open",
104.2383,11.2377,27,20,0,

"Position",,,,"Open",
79.3866,14.7122,26,20,0,

"Position",,,,"Open",
286.1235,87.2121,21,21,0,

"Position",,,,"Open",
285.4337,102.6501,23,23,0,

"Position",,,,"Open",
283.9904,65.7436,24,26,0,

"Position",,,,"Open",
262.6799,66.7703,25,25,0,

"Position",,,,"Open",
262.0513,85.2055,27,25,0,

"Position",,,,"Open",
275.8053,13.2085,25,23,0,

"Position",,,,"Open",
260.7211,105.7324,27,24,0,

"Position",,,,"Open",
224,12,30,19,0,

