"Position",,,,"Open",
192.3448,55.2397,25.7386,23.8981,0,

"Position",,,,"Open",
189.8071,82.8451,26.4068,20.006,0,

"Position",,,,"Open",
192.5717,105.1289,21.2923,19.4635,0,

"Position",,,,"Open",
214.6809,102.3157,31.0394,26.31,0,

"Position",,,,"Open",
152.5996,104.6879,25.9424,23.2073,0,

"Position",,,,"Open",
123.3153,83.7029,24.8596,20.3926,0,

"Position",,,,"Open",
122.7122,56.9727,27.7743,22.986,0,

"Position",,,,"Open",
148.8864,54.9511,28.0702,22.5082,0,

"Position",,,,"Open",
121.6773,102.3081,29.6896,25.194,0,

"Position",,,,"Open",
216.9642,57.918,25.2309,22.3805,0,

"Position",,,,"Open",
273.6292,80.2389,24.9268,24.9267,0,

"Position",,,,"Open",
273.2014,97.6071,25.8905,25.8904,0,

"Position",,,,"Open",
272.8581,58.1969,25.7511,27.6946,0,

"Position",,,,"Open",
249.95,58.5712,26.2711,26.2712,0,

"Position",,,,"Open",
248.0141,78.0691,29.5266,27.6116,0,

"Position",,,,"Open",
246.8217,101.0313,30.6079,22.9069,0,

