"Position",,,,"Open",
56.8786,1,60.5545,46.6506,0,

"Position",,,,"Open",
117.5594,1,59.7458,41.9458,0,

"Position",,,,"Open",
60.8871,42.0936,57.306,54.7505,0,

"Position",,,,"Open",
61.7577,86.6963,61.9564,56.725,0,

"Position",,,,"Open",
121.3426,82.5494,64.7503,55.1667,0,

"Position",,,,"Open",
252.0176,78.4662,48.7902,47.8951,0,

"Position",,,,"Open",
243.0091,1,62.2513,45.7773,0,

"Position",,,,"Open",
195.1873,1,61.6781,38.1496,0,

"Position",,,,"Open",
203.9907,38.2559,50.7562,47.4209,0,

"Position",,,,"Open",
204.9133,83.0422,51.5587,46.463,0,

