"Position",,,,"Open",
56.3457,1,60.2486,47.3523,0,

"Position",,,,"Open",
116.7008,1,60.0991,42.6773,0,

"Position",,,,"Open",
60.4816,42.4944,57.126,54.5792,0,

"Position",,,,"Open",
61.275,87.0057,61.7153,56.4615,0,

"Position",,,,"Open",
120.7504,82.7902,64.9694,55.3461,0,

"Position",,,,"Open",
251.8353,78.8891,48.9003,48.0038,0,

"Position",,,,"Open",
242.8768,1,61.5911,46.1276,0,

"Position",,,,"Open",
194.8776,1,61.0857,38.6225,0,

"Position",,,,"Open",
203.5313,38.7935,51.0369,47.7098,0,

"Position",,,,"Open",
204.6581,83.6644,51.36,46.3061,0,

