"Position",,,,"Open",
241.9641,25.2006,37.618,34.1973,0,

"Position",,,,"Open",
205.2134,21.2239,40.813,38.3964,0,

"Position",,,,"Open",
206.1157,57.983,37.2626,32.023,0,

"Position",,,,"Open",
206.7992,85.9789,37.8154,33.2819,0,

"Position",,,,"Open",
240.6175,88.0478,34.6596,30.3913,0,

"Position",,,,"Open",
149.8229,83.889,41.3426,31.0908,0,

"Position",,,,"Open",
110.3848,82.6123,39.0439,35.977,0,

"Position",,,,"Open",
111.4899,53.2458,38.7755,31.7328,0,

"Position",,,,"Open",
107.0201,17.0976,46.1449,37.4547,0,

"Position",,,,"Open",
148.8197,17.8037,46.3631,37.6395,0,

