"Position",,,,"Open",
189.5093,41.2816,27.3919,25.4116,0,

"Position",,,,"Open",
186.935,69.2191,28.6467,21.9134,0,

"Position",,,,"Open",
190.2632,92.3363,23.4109,21.4758,0,

"Position",,,,"Open",
214.0835,89.6543,31.8703,27.0454,0,

"Position",,,,"Open",
149.022,92.589,28.1408,25.295,0,

"Position",,,,"Open",
118.4095,71.5063,26.9036,22.3259,0,

"Position",,,,"Open",
117.8917,44.9303,28.2836,23.5006,0,

"Position",,,,"Open",
144.8802,41.7271,29.6751,23.9259,0,

"Position",,,,"Open",
116.9253,90.6287,32.4365,27.8097,0,

"Position",,,,"Open",
215.5477,44.0218,26.1636,23.2205,0,

"Position",,,,"Open",
249.508,44.4388,26.9959,26.9958,0,

"Position",,,,"Open",
247.7082,64.7409,30.5068,28.6222,0,

"Position",,,,"Open",
245.6423,88.141,30.3191,23.6929,0,

"Position",,,,"Open",
273.8098,66.3121,26.3602,26.3602,0,

"Position",,,,"Open",
273.9013,84.4748,26.979,26.9791,0,

"Position",,,,"Open",
273.3025,44.1868,25.9152,27.8737,0,

