"Position",,,,"Open",
55.5995,6.2214,61.485,52.6605,0,

"Position",,,,"Open",
115.1373,1,66.7014,53.5485,0,

"Position",,,,"Open",
55.3263,50.1728,63.4568,60.4957,0,

"Position",,,,"Open",
55.5878,98.7078,68.7584,62.8701,0,

"Position",,,,"Open",
118.8814,94.0792,73.4629,62.5499,0,

"Position",,,,"Open",
262.2108,91.7118,51.2686,50.2816,0,

"Position",,,,"Open",
253.3552,4.3866,53.1298,47.3037,0,

"Position",,,,"Open",
199.492,1.4675,59.6737,47.8214,0,

"Position",,,,"Open",
205.8542,46.839,58.5909,54.6763,0,

"Position",,,,"Open",
209.1945,95.162,57.4607,51.62,0,

