"Position",,,,"Open",
201.1057,49.321,25,24,0,

"Position",,,,"Open",
200.959,72.7819,25,20,0,

"Position",,,,"Open",
201.173,92.5282,24,20,0,

"Position",,,,"Open",
226.0901,92.1199,24,19,0,

"Position",,,,"Open",
166.5701,90.4285,25,22,0,

"Position",,,,"Open",
139.4587,72.39,26,18,0,

"Position",,,,"Open",
140.382,48.381,25,24,0,

"Position",,,,"Open",
164.088,47.772,28,24,0,

"Position",,,,"Open",
138.7494,90.2799,25,21,0,

"Position",,,,"Open",
225.9592,51.2473,22,19,0,

"Position",,,,"Open",
164.0077,1,26,12,0,

"Position",,,,"Open",
278.4684,73.5734,21,21,0,

"Position",,,,"Open",
277.3001,88.5179,23,23,0,

"Position",,,,"Open",
277.1374,52.8599,23,25,0,

"Position",,,,"Open",
255.6479,52.84,25,25,0,

"Position",,,,"Open",
254.4039,69.9157,28,26,0,

"Position",,,,"Open",
271.9751,3.1168,23,20,0,

"Position",,,,"Open",
252.4358,90.4511,26,23,0,

"Position",,,,"Open",
107,1,24,13,0,

"Position",,,,"Open",
139,1,26,12,0,

"Position",,,,"Open",
81,1,28,17,0,

"Position",,,,"Open",
221,1,28,17,0,

