"Position",,,,"Open",
213.3432,56.8673,24,24,0,

"Position",,,,"Open",
213.7992,99.8153,24,19,0,

"Position",,,,"Open",
237.3994,99.273,24,19,0,

"Position",,,,"Open",
179.482,97.8165,24,22,0,

"Position",,,,"Open",
152.5672,79.2943,25,18,0,

"Position",,,,"Open",
153.6704,55.7757,24,23,0,

"Position",,,,"Open",
176.5062,54.9568,27,24,0,

"Position",,,,"Open",
151.509,96.6154,25,22,0,

"Position",,,,"Open",
237.7847,58.9392,21,18,0,

"Position",,,,"Open",
214,81,25,20,0,

"Position",,,,"Open",
149.5813,1.5996,27,20,0,

"Position",,,,"Open",
93.8319,4.0845,26,20,0,

"Position",,,,"Open",
289.146,81.0003,20,20,0,

"Position",,,,"Open",
287.8509,95.4724,22,22,0,

"Position",,,,"Open",
287.55,60.3103,23,25,0,

"Position",,,,"Open",
266.7911,60.3757,25,25,0,

"Position",,,,"Open",
266.1188,77.4536,27,25,0,

"Position",,,,"Open",
282.4343,10.0604,23,21,0,

"Position",,,,"Open",
263.2951,97.2338,27,24,0,

"Position",,,,"Open",
177.1786,2.0181,26,18,0,

"Position",,,,"Open",
234,4,28,18,0,

"Position",,,,"Open",
121,2,23,16,0,

