"Position",,,,"Open",
179.2794,65.4444,25.2809,23.4691,0,

"Position",,,,"Open",
177.0663,92.4485,25.4603,19.3118,0,

"Position",,,,"Open",
179.7912,113.8637,21.1991,19.4617,0,

"Position",,,,"Open",
201.2621,110.9773,30.7507,26.1821,0,

"Position",,,,"Open",
140.6989,114.0072,25.2537,22.645,0,

"Position",,,,"Open",
112.2582,93.8357,23.7864,19.4793,0,

"Position",,,,"Open",
111.5148,67.3836,27.6347,22.9682,0,

"Position",,,,"Open",
137.263,65.7467,26.7788,21.5217,0,

"Position",,,,"Open",
110.789,112.0802,28.3717,24.1003,0,

"Position",,,,"Open",
203.4391,67.5528,25.0346,22.2103,0,

"Position",,,,"Open",
136.7596,9.595,28.4219,19.8598,0,

"Position",,,,"Open",
108.4969,10.119,28.5676,20.8063,0,

"Position",,,,"Open",
75.1481,10.7094,27.7025,20.5823,0,

"Position",,,,"Open",
51.0771,14.3427,26.6854,20.8857,0,

"Position",,,,"Open",
259.7283,87.8117,24.6093,24.6093,0,

"Position",,,,"Open",
259.345,105.1231,25.5013,25.5013,0,

"Position",,,,"Open",
259.4934,66.4754,25.0268,26.9769,0,

"Position",,,,"Open",
236.2931,67.1867,26.5346,26.5347,0,

"Position",,,,"Open",
234.1176,86.3352,29.9553,27.9667,0,

"Position",,,,"Open",
251.572,11.8717,26.7347,23.6092,0,

"Position",,,,"Open",
233.6879,108.8897,27.7403,24.8062,0,

"Position",,,,"Open",
197,9,29,23,0,

