"Position",,,,"Open",
220.3735,39.9963,28.7053,26.8815,0,

"Position",,,,"Open",
217.6195,69.7462,28.7827,21.8623,0,

"Position",,,,"Open",
219.885,93.1234,24.9727,22.3284,0,

"Position",,,,"Open",
244.4051,91.1416,32.581,27.8892,0,

"Position",,,,"Open",
177.292,90.9984,30.2856,26.6754,0,

"Position",,,,"Open",
145.2894,68.0633,29.4341,23.9035,0,

"Position",,,,"Open",
145.1235,40.1804,29.7487,24.1964,0,

"Position",,,,"Open",
173.318,37.8522,32.1039,26.4711,0,

"Position",,,,"Open",
142.8199,87.6362,35.3294,29.908,0,

"Position",,,,"Open",
246.7673,44.2837,27.376,23.873,0,

"Position",,,,"Open",
281.2038,47.7747,25.1113,25.1112,0,

"Position",,,,"Open",
278.6623,67.772,29.905,28.1142,0,

"Position",,,,"Open",
276.5437,90.6254,30.9528,24.5819,0,

"Position",,,,"Open",
303.75,74.202,16.25,22.3135,0,

"Position",,,,"Open",
306.9173,92.2226,13,23,0,

"Position",,,,"Open",
305,50,16,24,0,

