"Position",,,,"Open",
215.1937,11.8278,44.2483,40.3948,0,

"Position",,,,"Open",
175.7825,10.4745,45.0657,42.3932,0,

"Position",,,,"Open",
177.2839,46.6049,45.9074,39.8815,0,

"Position",,,,"Open",
179.946,78.3464,45.6176,40.133,0,

"Position",,,,"Open",
220.7738,78.5809,40.1975,34.8847,0,

"Position",,,,"Open",
117.2992,80.5191,49.7855,38.7145,0,

"Position",,,,"Open",
75.9839,83.9008,45.696,42.2906,0,

"Position",,,,"Open",
74.6833,50.3468,46.4773,38.8549,0,

"Position",,,,"Open",
71.4863,14.8316,49.7434,40.7732,0,

"Position",,,,"Open",
116.2135,12.4356,49.4434,40.2559,0,

