"Position",,,,"Open",
240.6154,38.9495,32.9108,30.2142,0,

"Position",,,,"Open",
207.4377,37.1889,36.5784,34.3598,0,

"Position",,,,"Open",
208.5781,71.799,31.2066,27.0195,0,

"Position",,,,"Open",
211.267,97.6357,29.1848,25.6435,0,

"Position",,,,"Open",
236.3678,97.0478,31.4389,27.981,0,

"Position",,,,"Open",
159.3983,95.9873,33.5328,25.4091,0,

"Position",,,,"Open",
124.6061,94.8456,32.0293,29.5585,0,

"Position",,,,"Open",
124.3016,68.8266,32.7176,27.1549,0,

"Position",,,,"Open",
117.5953,33.1536,42.3541,35.2759,0,

"Position",,,,"Open",
156.3774,35.5992,40.1622,32.2453,0,

