"Position",,,,"Open",
242.3421,31.8209,36.9828,33.5955,0,

"Position",,,,"Open",
205.6202,27.3354,40.9884,38.6365,0,

"Position",,,,"Open",
206.0719,64.5605,36.5819,31.272,0,

"Position",,,,"Open",
206.1973,92.0581,37.4597,33.0689,0,

"Position",,,,"Open",
238.9027,94.3767,34.7754,30.743,0,

"Position",,,,"Open",
149.7763,89.3506,41.0538,31.247,0,

"Position",,,,"Open",
110.4218,87.0684,39.537,36.6119,0,

"Position",,,,"Open",
112.6873,58.6557,38.1546,31.2958,0,

"Position",,,,"Open",
108.5821,22.2719,45.8222,37.0243,0,

"Position",,,,"Open",
149.3807,22.9503,47.0578,38.5749,0,

