"Position",,,,"Open",
53.7416,12.527,61.1098,52.1321,0,

"Position",,,,"Open",
113.2307,7.411,66.4839,53.5631,0,

"Position",,,,"Open",
53.9072,56.8212,62.4776,59.4901,0,

"Position",,,,"Open",
54.1077,105.4878,67.231,61.3023,0,

"Position",,,,"Open",
116.5246,101.172,72.9128,61.9746,0,

"Position",,,,"Open",
259.9935,98.7776,51.018,50.0224,0,

"Position",,,,"Open",
251.3016,10.9435,53.9553,48.0732,0,

"Position",,,,"Open",
197.5149,8.2912,59.883,47.9541,0,

"Position",,,,"Open",
203.3587,53.8965,58.7578,54.786,0,

"Position",,,,"Open",
206.6634,102.2698,57.7746,51.9078,0,

