"Position",,,,"Open",
95.8565,27.3309,49,46,0,

"Position",,,,"Open",
95.2028,63.6912,55,51,0,

"Position",,,,"Open",
141.5624,63.7325,58,49,0,

"Position",,,,"Open",
253.3515,1,50,34,0,

"Position",,,,"Open",
259.5059,67.8137,42,40,0,

"Position",,,,"Open",
215.994,65.4083,49,45,0,

"Position",,,,"Open",
214.9423,32.4751,46,40,0,

"Position",,,,"Open",
208.5456,1,55,31,0,

"Position",,,,"Open",
97.6212,1,51,33,0,

"Position",,,,"Open",
144.2132,1,53,28,0,

