"Position",,,,"Open",
56.8514,7.2518,61.3596,52.5026,0,

"Position",,,,"Open",
116.392,1.8411,66.8056,53.8914,0,

"Position",,,,"Open",
56.4671,51.0305,63.834,60.8701,0,

"Position",,,,"Open",
56.7993,99.881,68.728,62.7915,0,

"Position",,,,"Open",
120.0654,95.3009,73.4932,62.6046,0,

"Position",,,,"Open",
263.4138,93.0431,51.0759,50.0844,0,

"Position",,,,"Open",
254.3497,5.4836,53.5111,47.7054,0,

"Position",,,,"Open",
200.7281,2.7275,59.7999,47.9492,0,

"Position",,,,"Open",
207.1773,48.1499,58.5716,54.6497,0,

"Position",,,,"Open",
210.3881,96.5946,57.3554,51.4454,0,

