"Position",,,,"Open",
202.8452,83.6197,17,14,0,

"Position",,,,"Open",
222.4269,82.8315,22,17,0,

"Position",,,,"Open",
170.7871,82.4123,21,19,0,

"Position",,,,"Open",
146.1149,65.5394,22,17,0,

"Position",,,,"Open",
147.4984,44.8099,22,21,0,

"Position",,,,"Open",
167.3368,42.5526,25,23,0,

"Position",,,,"Open",
144.8869,80.5484,23,20,0,

"Position",,,,"Open",
222.8756,46.1714,20,18,0,

"Position",,,,"Open",
201.873,45.4612,19,19,0,

"Position",,,,"Open",
200.5743,64.3127,23,20,0,

"Position",,,,"Open",
143.0648,1,26,14,0,

"Position",,,,"Open",
271.1884,66.2148,19,19,0,

"Position",,,,"Open",
268.9172,47.5195,23,24,0,

"Position",,,,"Open",
249.8409,62.5537,26,24,0,

"Position",,,,"Open",
265.4229,2.4513,22,20,0,

"Position",,,,"Open",
251.5831,47.9084,20,23,0,

"Position",,,,"Open",
270.994,81.4698,21,21,0,

"Position",,,,"Open",
248.9441,82.0923,27,22,0,

"Position",,,,"Open",
111.9702,1,25,15,0,

"Position",,,,"Open",
221,1,22,15,0,

"Position",,,,"Open",
169,1,22,14,0,

"Position",,,,"Open",
94,1,22,17,0,

