"Position",,,,"Open",
193.3753,98.0129,19.27,15.6373,0,

"Position",,,,"Open",
214.3049,97.3663,22.8265,18.1119,0,

"Position",,,,"Open",
160.5325,96.1317,22.9443,21.0813,0,

"Position",,,,"Open",
135.3766,78.5879,24.0394,17.8295,0,

"Position",,,,"Open",
137.3862,57.5279,22.3629,21.4954,0,

"Position",,,,"Open",
157.9855,55.8367,25.7419,23.1048,0,

"Position",,,,"Open",
133.7636,93.9736,24.8181,22.0418,0,

"Position",,,,"Open",
215.2664,59.5459,21.1357,18.3674,0,

"Position",,,,"Open",
192.8189,58.1237,21.0573,21.0573,0,

"Position",,,,"Open",
191.7494,77.8428,24.8924,21.3696,0,

"Position",,,,"Open",
134.1213,6.2128,26.7457,20.2963,0,

"Position",,,,"Open",
83.0584,8.9379,24.9807,20.5319,0,

"Position",,,,"Open",
265.1818,79.8747,20.6139,20.6141,0,

"Position",,,,"Open",
263.7578,60.7632,22.8948,24.7156,0,

"Position",,,,"Open",
242.4982,76.2415,27.5203,25.8231,0,

"Position",,,,"Open",
259.9534,12.9644,24.2059,21.4715,0,

"Position",,,,"Open",
244.1125,60.2851,21.6953,25.3702,0,

"Position",,,,"Open",
265.2148,96.1595,22.089,22.0888,0,

"Position",,,,"Open",
241.2573,96.5465,28.2186,23.5286,0,

"Position",,,,"Open",
159.3319,6.3586,24.7995,17.5551,0,

"Position",,,,"Open",
105,8,25,18,0,

"Position",,,,"Open",
213,10,26,18,0,

