"Position",,,,"Open",
241.7178,32.8776,37.0255,33.6363,0,

"Position",,,,"Open",
205.01,28.4656,41.0498,38.6955,0,

"Position",,,,"Open",
205.4763,65.6842,36.6198,31.3172,0,

"Position",,,,"Open",
205.7246,93.2312,37.4762,33.0685,0,

"Position",,,,"Open",
238.3952,95.5333,34.6881,30.6659,0,

"Position",,,,"Open",
149.4159,90.6448,40.8944,31.0737,0,

"Position",,,,"Open",
110.1305,88.4693,39.2959,36.3823,0,

"Position",,,,"Open",
112.2426,59.8275,38.166,31.2873,0,

"Position",,,,"Open",
108.079,23.3175,45.86,37.0722,0,

"Position",,,,"Open",
148.7613,24.0057,47.1602,38.6804,0,

