"Position",,,,"Open",
61.6217,1.8867,61.547,52.405,0,

"Position",,,,"Open",
123.1429,1.3111,59.4838,48.1648,0,

"Position",,,,"Open",
66.6097,48.9586,56.8959,54.3436,0,

"Position",,,,"Open",
67.5241,93.4977,61.1741,55.9595,0,

"Position",,,,"Open",
127.4952,89.3274,63.8204,54.4354,0,

"Position",,,,"Open",
256.5,85.1819,47.466,46.5779,0,

"Position",,,,"Open",
247.1038,1,63.2955,52.2032,0,

"Position",,,,"Open",
199.7001,1,63.3909,44.8146,0,

"Position",,,,"Open",
208.9902,44.9298,50.3685,47.0785,0,

"Position",,,,"Open",
209.9232,89.6939,50.9195,45.9397,0,

