"Position",,,,"Open",
177.8908,64.8595,25.5356,23.7336,0,

"Position",,,,"Open",
175.6583,91.9187,25.8183,19.7323,0,

"Position",,,,"Open",
178.5174,113.5674,21.218,19.4814,0,

"Position",,,,"Open",
200.0618,110.4772,30.8102,26.2383,0,

"Position",,,,"Open",
139.306,113.797,25.4377,22.8104,0,

"Position",,,,"Open",
110.8428,93.5996,23.9439,19.6495,0,

"Position",,,,"Open",
110.1144,67.2454,27.6748,23.0095,0,

"Position",,,,"Open",
135.8661,65.4469,26.8713,21.5884,0,

"Position",,,,"Open",
109.3967,111.9577,28.4719,24.2031,0,

"Position",,,,"Open",
202.2618,67.1355,24.9003,22.0716,0,

"Position",,,,"Open",
135.3145,9.1156,28.6744,20.1431,0,

"Position",,,,"Open",
107.2206,9.957,28.3851,20.7055,0,

"Position",,,,"Open",
73.8394,10.5381,27.6725,20.5284,0,

"Position",,,,"Open",
49.7784,14.2539,26.6671,20.8838,0,

"Position",,,,"Open",
258.573,87.1092,24.7209,24.7209,0,

"Position",,,,"Open",
258.2317,104.3777,25.6254,25.6254,0,

"Position",,,,"Open",
258.2217,65.7378,25.2737,27.2331,0,

"Position",,,,"Open",
235.0361,66.6123,26.4893,26.4894,0,

"Position",,,,"Open",
232.9057,85.7574,29.9743,27.9907,0,

"Position",,,,"Open",
250.4272,11.2175,26.8582,23.7374,0,

"Position",,,,"Open",
232.6454,108.3401,27.7437,24.8112,0,

"Position",,,,"Open",
197,9,28,22,0,

