"Position",,,,"Open",
55.5034,9.8232,60.9452,52.0461,0,

"Position",,,,"Open",
114.8097,4.4335,66.5829,53.6776,0,

"Position",,,,"Open",
55.2349,53.7766,62.9572,59.9816,0,

"Position",,,,"Open",
55.5168,102.513,67.7047,61.7809,0,

"Position",,,,"Open",
118.1888,98.0978,73.0325,62.0998,0,

"Position",,,,"Open",
261.6431,95.8457,50.9268,49.9369,0,

"Position",,,,"Open",
252.9279,8.2282,53.4096,47.5505,0,

"Position",,,,"Open",
199.1809,5.417,59.6231,47.7022,0,

"Position",,,,"Open",
205.1576,50.7602,58.7527,54.8299,0,

"Position",,,,"Open",
208.4964,99.2752,57.3915,51.4791,0,

