"Position",,,,"Open",
213.224,53.7012,25,24,0,

"Position",,,,"Open",
213.0294,77.0255,25,20,0,

"Position",,,,"Open",
213.144,96.4825,24,20,0,

"Position",,,,"Open",
236.7228,96.2996,24,20,0,

"Position",,,,"Open",
179.0234,93.9652,24,22,0,

"Position",,,,"Open",
152.2863,75.2944,25,18,0,

"Position",,,,"Open",
153.611,51.7644,24,23,0,

"Position",,,,"Open",
176.642,51.4846,27,24,0,

"Position",,,,"Open",
150.9476,92.4918,25,22,0,

"Position",,,,"Open",
237.6764,56.219,22,19,0,

"Position",,,,"Open",
150.0997,1,28,17,0,

"Position",,,,"Open",
94.409,1,25,18,0,

"Position",,,,"Open",
288.7407,79.2682,21,21,0,

"Position",,,,"Open",
287.3001,93.6866,22,22,0,

"Position",,,,"Open",
287.2382,58.4276,23,25,0,

"Position",,,,"Open",
266.6087,58.4305,25,25,0,

"Position",,,,"Open",
265.3704,75.0195,28,26,0,

"Position",,,,"Open",
283.6169,9.0959,22,20,0,

"Position",,,,"Open",
262.5453,94.7875,27,24,0,

"Position",,,,"Open",
121,1,23,16,0,

"Position",,,,"Open",
179,1,26,18,0,

"Position",,,,"Open",
234,4,28,18,0,

