"Position",,,,"Open",
58.1196,6.6705,61.3825,52.5439,0,

"Position",,,,"Open",
117.6619,1.2218,66.7298,53.8656,0,

"Position",,,,"Open",
57.639,50.3877,63.8169,60.8427,0,

"Position",,,,"Open",
58.0612,99.1408,68.7751,62.8622,0,

"Position",,,,"Open",
121.4123,94.5961,73.5153,62.6135,0,

"Position",,,,"Open",
264.6841,92.6163,50.7504,49.7653,0,

"Position",,,,"Open",
255.6174,5.0982,53.1022,47.3167,0,

"Position",,,,"Open",
201.9688,2.158,59.6385,47.8125,0,

"Position",,,,"Open",
208.3043,47.5313,58.4634,54.5431,0,

"Position",,,,"Open",
211.7201,96.0399,57.1377,51.2441,0,

