"Position",,,,"Open",
217.8159,9.4002,43.7194,39.8223,0,

"Position",,,,"Open",
178.1523,7.4088,44.5795,41.8544,0,

"Position",,,,"Open",
179.334,43.589,45.0401,38.8667,0,

"Position",,,,"Open",
181.3373,75.1522,45.0371,39.4685,0,

"Position",,,,"Open",
222.2424,76.0945,39.7436,34.3067,0,

"Position",,,,"Open",
118.3527,76.0951,49.4531,38.1137,0,

"Position",,,,"Open",
76.8425,78.6933,45.2687,41.8042,0,

"Position",,,,"Open",
76.0471,45.3517,46.0744,38.2916,0,

"Position",,,,"Open",
73.6903,10.1925,48.994,39.8738,0,

"Position",,,,"Open",
118.5582,8.4091,48.7082,39.3671,0,

