"Position",,,,"Open",
194.0838,99.2632,19.5603,15.8563,0,

"Position",,,,"Open",
215.1867,98.6113,22.944,18.1905,0,

"Position",,,,"Open",
161.094,97.4725,23.3548,21.4829,0,

"Position",,,,"Open",
136.0845,80.1745,23.9427,17.6399,0,

"Position",,,,"Open",
137.7691,58.7421,22.6219,21.7532,0,

"Position",,,,"Open",
158.5142,57.0811,25.9572,23.3242,0,

"Position",,,,"Open",
134.5119,95.6335,24.7928,21.9879,0,

"Position",,,,"Open",
215.9227,60.468,21.2828,18.4995,0,

"Position",,,,"Open",
193.4673,59.1335,21.0475,21.0475,0,

"Position",,,,"Open",
192.4116,78.9784,24.9649,21.4383,0,

"Position",,,,"Open",
134.2805,7.066,26.6789,20.1874,0,

"Position",,,,"Open",
82.9738,9.9269,25.0762,20.5548,0,

"Position",,,,"Open",
266.1045,80.4933,20.6041,20.6042,0,

"Position",,,,"Open",
264.3775,61.0882,23.1865,24.9916,0,

"Position",,,,"Open",
243.5366,77.2317,27.2642,25.5228,0,

"Position",,,,"Open",
260.1825,12.8047,24.5135,21.7693,0,

"Position",,,,"Open",
245.1059,61.0255,21.2701,25.0467,0,

"Position",,,,"Open",
266.2413,97.0754,22.1052,22.1051,0,

"Position",,,,"Open",
242.3146,97.7368,28.2012,23.4172,0,

"Position",,,,"Open",
159.5581,6.9877,24.8177,17.5375,0,

"Position",,,,"Open",
105,8,25,18,0,

"Position",,,,"Open",
213,10,26,18,0,

