"Position",,,,"Open",
252.7802,42.0631,34.4503,31.4642,0,

"Position",,,,"Open",
218.4396,38.8061,38.5746,36.2701,0,

"Position",,,,"Open",
219.4978,74.7974,34.049,29.3267,0,

"Position",,,,"Open",
221.6619,101.9199,32.2561,28.4312,0,

"Position",,,,"Open",
249.8967,102.5996,32.4353,28.7641,0,

"Position",,,,"Open",
167.1936,99.4171,36.7188,27.6488,0,

"Position",,,,"Open",
129.4453,96.8195,36.3451,33.6536,0,

"Position",,,,"Open",
130.4881,70.0499,35.1817,28.9295,0,

"Position",,,,"Open",
123.9399,33.0412,45.2151,37.1531,0,

"Position",,,,"Open",
164.5015,35.1175,44.1199,35.8054,0,

