"Position",,,,"Open",
187.6412,93.863,19.248,15.5872,0,

"Position",,,,"Open",
208.6165,93.0887,22.8324,18.0823,0,

"Position",,,,"Open",
154.573,91.7865,23.5633,21.6714,0,

"Position",,,,"Open",
129.6951,74.4485,24.0694,17.8954,0,

"Position",,,,"Open",
131.7226,53.5126,22.3066,21.4505,0,

"Position",,,,"Open",
152.211,51.6449,25.8871,23.2355,0,

"Position",,,,"Open",
128.1519,90.0763,24.7489,21.9204,0,

"Position",,,,"Open",
209.2797,54.9993,21.3706,18.576,0,

"Position",,,,"Open",
187.0354,53.8162,20.9282,20.9282,0,

"Position",,,,"Open",
185.8377,73.4362,24.9769,21.4815,0,

"Position",,,,"Open",
128.6302,2.2673,26.5865,20.1655,0,

"Position",,,,"Open",
78.0014,5.237,25.0067,20.7772,0,

"Position",,,,"Open",
259.518,75.3412,20.7445,20.7447,0,

"Position",,,,"Open",
257.8782,56.0936,23.2003,25.0104,0,

"Position",,,,"Open",
236.7234,71.8275,27.4586,25.7492,0,

"Position",,,,"Open",
254.2907,8.6185,24.0718,21.3117,0,

"Position",,,,"Open",
238.3883,55.9517,21.4122,25.0754,0,

"Position",,,,"Open",
259.7333,91.9647,22.0749,22.0747,0,

"Position",,,,"Open",
235.521,92.3454,28.3253,23.5899,0,

"Position",,,,"Open",
153.6663,2.2315,24.6338,17.4293,0,

"Position",,,,"Open",
99,2,25,18,0,

"Position",,,,"Open",
206,4,26,18,0,

