"Position",,,,"Open",
227.1284,28.9267,37.5338,34.1948,0,

"Position",,,,"Open",
191.6212,26.4099,39.6173,37.1848,0,

"Position",,,,"Open",
191.7713,61.7729,36.4671,31.2612,0,

"Position",,,,"Open",
192.853,89.3701,36.2939,31.8941,0,

"Position",,,,"Open",
225.2324,90.8449,33.5491,29.5646,0,

"Position",,,,"Open",
137.44,88.5311,38.8937,29.2105,0,

"Position",,,,"Open",
99.3528,87.5936,36.8079,33.9207,0,

"Position",,,,"Open",
100.3241,59.2197,36.7656,30.2046,0,

"Position",,,,"Open",
95.3891,22.9954,45.3582,37.0121,0,

"Position",,,,"Open",
135.995,23.4654,45.3151,36.8825,0,

