"Position",,,,"Open",
202.0752,95.458,20.4646,16.3601,0,

"Position",,,,"Open",
223.7143,94.3202,23.5511,18.7439,0,

"Position",,,,"Open",
168.3542,93.3235,24.2911,22.396,0,

"Position",,,,"Open",
143.0201,76.2315,24.0832,17.4025,0,

"Position",,,,"Open",
144.2109,53.928,23.2823,22.3728,0,

"Position",,,,"Open",
165.7802,52.491,26.3654,23.6797,0,

"Position",,,,"Open",
141.4675,91.9531,25.1915,22.2703,0,

"Position",,,,"Open",
224.0226,55.6737,21.5946,18.7644,0,

"Position",,,,"Open",
201.1015,54.2874,21.5474,21.5474,0,

"Position",,,,"Open",
200.3505,74.5906,25.3315,21.706,0,

"Position",,,,"Open",
140.0826,2.0251,26.9075,20.2476,0,

"Position",,,,"Open",
87.2285,5.0058,25.5414,20.5631,0,

"Position",,,,"Open",
274.5193,76.1012,20.6994,20.6995,0,

"Position",,,,"Open",
272.3743,56.387,23.6214,25.4263,0,

"Position",,,,"Open",
252.0307,72.9086,27.0885,25.3473,0,

"Position",,,,"Open",
267.7272,7.9654,24.2593,21.579,0,

"Position",,,,"Open",
253.3081,56.2616,21.396,25.2084,0,

"Position",,,,"Open",
275.5867,93.4945,21.4397,21.4397,0,

"Position",,,,"Open",
251.3986,94.0457,27.8905,23.0158,0,

"Position",,,,"Open",
165.8794,1.7572,25.227,17.7642,0,

"Position",,,,"Open",
220,5,26,18,0,

"Position",,,,"Open",
110,4,25,18,0,

