"Position",,,,"Open",
229.6391,35.9816,32.1917,29.6682,0,

"Position",,,,"Open",
197.5167,34.9403,35.3184,33.145,0,

"Position",,,,"Open",
198.2065,68.1927,29.9843,25.896,0,

"Position",,,,"Open",
201.0242,93.3022,27.8238,24.4823,0,

"Position",,,,"Open",
224.0313,92.1283,30.8239,27.4898,0,

"Position",,,,"Open",
150.3854,92.2764,31.6659,24.0909,0,

"Position",,,,"Open",
117.2907,91.5793,29.7203,27.423,0,

"Position",,,,"Open",
116.9678,66.5044,30.8359,25.6872,0,

"Position",,,,"Open",
110.3556,31.8802,40.3193,33.6558,0,

"Position",,,,"Open",
147.6402,34.0152,38.0368,30.4976,0,

