"Position",,,,"Open",
237.6212,37.8232,30,28,0,

"Position",,,,"Open",
208.212,37.8151,32,30,0,

"Position",,,,"Open",
208.5743,68.8533,27,23,0,

"Position",,,,"Open",
212.5754,93.2602,23,20,0,

"Position",,,,"Open",
231.1188,90.4905,30,27,0,

"Position",,,,"Open",
164.0057,92.3251,28,22,0,

"Position",,,,"Open",
133.1104,92.227,26,24,0,

"Position",,,,"Open",
132.1253,68.9161,28,23,0,

"Position",,,,"Open",
124.8286,35.3715,37,31,0,

"Position",,,,"Open",
159.9053,37.3003,35,28,0,

"Position",,,,"Open",
272.7043,44.3931,27,27,0,

"Position",,,,"Open",
296.8768,46.446,22,27,0,

"Position",,,,"Open",
270.7314,66.3197,31,29,0,

"Position",,,,"Open",
269.8778,90.3584,31,25,0,

"Position",,,,"Open",
299.9867,90.3403,20,27,0,

"Position",,,,"Open",
297,73,24,21,0,

