"Position",,,,"Open",
182.1632,38.7937,27.2439,25.2948,0,

"Position",,,,"Open",
179.6084,65.953,28.9437,22.4447,0,

"Position",,,,"Open",
183.4312,88.8611,23.4243,21.5587,0,

"Position",,,,"Open",
207.4389,85.8658,31.4429,26.7606,0,

"Position",,,,"Open",
142.3544,89.4477,28.4323,25.6488,0,

"Position",,,,"Open",
112.0256,69.2149,26.7363,22.3337,0,

"Position",,,,"Open",
111.3214,43.232,28.1543,23.5474,0,

"Position",,,,"Open",
138.1492,39.7453,29.1946,23.6331,0,

"Position",,,,"Open",
110.9048,88.1861,31.9701,27.5383,0,

"Position",,,,"Open",
208.1224,41.006,26.1014,23.2039,0,

"Position",,,,"Open",
266.4711,62.0738,26.6162,26.6163,0,

"Position",,,,"Open",
266.9164,80.0129,26.8646,26.8646,0,

"Position",,,,"Open",
265.9388,40.5942,25.8865,27.8178,0,

"Position",,,,"Open",
241.9844,40.8838,27.1719,27.1718,0,

"Position",,,,"Open",
240.3668,60.9101,30.1616,28.1621,0,

"Position",,,,"Open",
240.0141,84.0971,31.1607,23.2139,0,

