"Position",,,,"Open",
243.0833,33.0651,32.1273,29.5922,0,

"Position",,,,"Open",
210.6725,31.6314,35.6113,33.4391,0,

"Position",,,,"Open",
211.8628,65.3152,29.8953,25.8388,0,

"Position",,,,"Open",
214.6776,90.6011,27.4222,24.1399,0,

"Position",,,,"Open",
238.0167,89.5103,30.8298,27.4754,0,

"Position",,,,"Open",
163.1954,89.1828,32.2599,24.5667,0,

"Position",,,,"Open",
129.2532,88.1445,30.708,28.3762,0,

"Position",,,,"Open",
128.6465,62.9253,31.9776,26.6722,0,

"Position",,,,"Open",
122.0084,28.1902,41.0639,34.2831,0,

"Position",,,,"Open",
160.3134,30.5863,38.4935,30.8069,0,

