"Position",,,,"Open",
193.5859,99.4012,19.3907,15.7406,0,

"Position",,,,"Open",
214.5782,98.7411,22.9017,18.1672,0,

"Position",,,,"Open",
160.7372,97.4578,23.117,21.2536,0,

"Position",,,,"Open",
135.7361,80.1672,23.7979,17.6097,0,

"Position",,,,"Open",
137.6301,58.9042,22.3244,21.4533,0,

"Position",,,,"Open",
158.1388,57.1434,25.8808,23.2526,0,

"Position",,,,"Open",
134.0868,95.4561,24.757,21.9762,0,

"Position",,,,"Open",
215.5688,60.8231,21.1469,18.3599,0,

"Position",,,,"Open",
193.0447,59.3984,21.0865,21.0865,0,

"Position",,,,"Open",
191.9628,79.2084,24.9238,21.3996,0,

"Position",,,,"Open",
134.1805,7.2525,26.6904,20.2275,0,

"Position",,,,"Open",
83.0352,9.9464,24.9951,20.5319,0,

"Position",,,,"Open",
265.575,81.0061,20.5892,20.5893,0,

"Position",,,,"Open",
263.938,61.6877,23.0976,24.9147,0,

"Position",,,,"Open",
242.9376,77.5132,27.4501,25.732,0,

"Position",,,,"Open",
260.0483,13.6518,24.3253,21.5872,0,

"Position",,,,"Open",
244.5296,61.3972,21.567,25.2926,0,

"Position",,,,"Open",
265.6773,97.5027,22.0034,22.0033,0,

"Position",,,,"Open",
241.6454,97.9434,28.318,23.5881,0,

"Position",,,,"Open",
159.4045,7.3277,24.8172,17.5473,0,

"Position",,,,"Open",
105,8,25,18,0,

"Position",,,,"Open",
213,10,26,18,0,

