"Position",,,,"Open",
245.7217,25.04,39.0802,35.5523,0,

"Position",,,,"Open",
207.9911,21.5332,41.7007,39.0926,0,

"Position",,,,"Open",
208.7693,58.3226,39.7977,34.1332,0,

"Position",,,,"Open",
209.8482,87.7105,39.7555,34.8995,0,

"Position",,,,"Open",
245.8339,89.546,36.2548,31.5557,0,

"Position",,,,"Open",
150.0745,86.1592,44.3494,33.5343,0,

"Position",,,,"Open",
109.6858,86.0197,40.8067,37.5527,0,

"Position",,,,"Open",
110.4096,54.8682,41.5336,34.1088,0,

"Position",,,,"Open",
106.4898,18.8261,47.3863,38.4221,0,

"Position",,,,"Open",
149.9676,19.2988,47.1763,37.9329,0,

