"Position",,,,"Open",
204.4677,46.4189,27.6789,25.9071,0,

"Position",,,,"Open",
201.6559,75.3782,27.9251,21.2829,0,

"Position",,,,"Open",
204.1331,98.411,23.84,21.3047,0,

"Position",,,,"Open",
227.7883,96.2506,32.2836,27.6234,0,

"Position",,,,"Open",
162.479,97.0294,28.9975,25.4842,0,

"Position",,,,"Open",
131.5206,74.6845,28.0643,22.9052,0,

"Position",,,,"Open",
131.4663,47.4105,28.6058,23.3319,0,

"Position",,,,"Open",
158.9511,45.3037,30.1427,24.8553,0,

"Position",,,,"Open",
129.3164,93.963,33.2389,28.1632,0,

"Position",,,,"Open",
230.2323,50.1598,26.9922,23.4519,0,

"Position",,,,"Open",
264.4966,52.2589,25.7182,25.7181,0,

"Position",,,,"Open",
261.7487,72.1965,30.4621,28.635,0,

"Position",,,,"Open",
259.5026,95.3841,30.6432,24.2003,0,

"Position",,,,"Open",
287.4888,74.6398,25.7861,25.7862,0,

"Position",,,,"Open",
287.4738,93.3239,26.1295,26.1295,0,

"Position",,,,"Open",
287.5081,52.2611,25.1422,27.1191,0,

