"Position",,,,"Open",
217.3796,62.4821,24,24,0,

"Position",,,,"Open",
217.3799,105.2189,23,18,0,

"Position",,,,"Open",
240.544,105.1056,24,19,0,

"Position",,,,"Open",
183.4028,102.5779,24,22,0,

"Position",,,,"Open",
156.9137,83.709,25,18,0,

"Position",,,,"Open",
158.3625,60.3717,24,23,0,

"Position",,,,"Open",
180.6514,59.836,27,25,0,

"Position",,,,"Open",
155.5015,100.8207,25,22,0,

"Position",,,,"Open",
241.6498,65.0207,21,18,0,

"Position",,,,"Open",
216.1493,84.7567,25,20,0,

"Position",,,,"Open",
155.2121,6.0157,27,20,0,

"Position",,,,"Open",
99.7064,7.3913,25,20,0,

"Position",,,,"Open",
292.0616,87.7006,21,21,0,

"Position",,,,"Open",
290.3705,101.9892,22,22,0,

"Position",,,,"Open",
290.6312,66.8947,23,25,0,

"Position",,,,"Open",
270.1684,67.028,25,25,0,

"Position",,,,"Open",
269.3779,83.7971,27,25,0,

"Position",,,,"Open",
287.2076,16.9036,23,20,0,

"Position",,,,"Open",
266.1576,103.6044,27,24,0,

"Position",,,,"Open",
182.7152,7.0333,25,18,0,

"Position",,,,"Open",
125,8,23,16,0,

"Position",,,,"Open",
238,10,28,18,0,

