"Position",,,,"Open",
202.737,81.5209,24.1577,23.2117,1,

"Position",,,,"Open",
136.2906,85.1831,28.5652,20.2779,1,

"Position",,,,"Open",
230.0567,5.4363,24.5575,18.4651,1,

"Position",,,,"Open",
168.3832,2.9773,30.8553,17.0203,1,

