"Position",,,,"Open",
223.3786,83.2257,20.6434,20.6435,1,

"Position",,,,"Open",
165.2028,84.9533,24.4931,17.8521,1,

"Position",,,,"Open",
248.9178,15.6486,22.6587,17.6554,1,

"Position",,,,"Open",
195.4091,12.6449,26.6966,17.2463,1,

