"Position",,,,"Open",
226.2936,74.2507,20.6987,20.6986,1,

"Position",,,,"Open",
167.7269,76.039,24.6035,17.9195,1,

"Position",,,,"Open",
251.1768,7.3108,22.5579,17.5582,1,

"Position",,,,"Open",
197.283,4.0873,26.8491,17.278,1,

