"Position",,,,"Open",
208.4259,70.2628,20.5127,20.5128,1,

"Position",,,,"Open",
151.1448,71.9587,24.204,17.7466,1,

"Position",,,,"Open",
234.1125,5.0702,22.614,17.6322,1,

"Position",,,,"Open",
181.2371,2.22,26.3282,17.0566,1,

