"Position",,,,"Open",
231.9604,86.0537,20.8953,20.8953,1,

"Position",,,,"Open",
172.9199,87.7948,24.6779,17.9153,1,

"Position",,,,"Open",
257.3204,17.1869,22.6571,17.6085,1,

"Position",,,,"Open",
202.9822,13.9077,27.0915,17.4234,1,

