"Position",,,,"Open",
233.3342,77.252,22.0984,21.1676,1,

"Position",,,,"Open",
171.0645,78.326,26.5304,18.981,1,

"Position",,,,"Open",
259.5153,6.6371,22.7664,17.5696,1,

"Position",,,,"Open",
202.6783,2.1927,28.4329,15.7614,1,

