"Position",,,,"Open",
224.8207,74.7361,20.6822,20.6822,1,

"Position",,,,"Open",
166.3439,76.7685,24.5045,17.878,1,

"Position",,,,"Open",
249.3275,7.307,22.65,17.6325,1,

"Position",,,,"Open",
195.4489,4.4192,26.8557,17.3293,1,

