"Position",,,,"Open",
210.2514,72.6425,20.6254,20.6256,1,

"Position",,,,"Open",
152.7757,74.5506,24.2913,17.7751,1,

"Position",,,,"Open",
235.8926,6.7906,22.6979,17.678,1,

"Position",,,,"Open",
182.8182,4.0501,26.5089,17.1888,1,

