"Position",,,,"Open",
222.3608,83.8088,20.6783,20.6784,1,

"Position",,,,"Open",
164.2542,85.7391,24.4622,17.863,1,

"Position",,,,"Open",
247.7972,16.2513,22.7359,17.6953,1,

"Position",,,,"Open",
194.275,13.4497,26.7104,17.2613,1,

